{
    "Type": "Extension",
    "Name": "codec",
    "Info": "Codec Extension",
    "Author": "CovScript Organization",
    "Version": "1.0.2",
    "Target": "build/imports/codec.cse",
    "Dependencies": []
}